[{
    "name": "Erika Musterfrau",
    "sector": "Linz (LOWL)",
    "elapsed": 4032,
    "conflict": 43,
    "served": 41
}, {
    "name": "Ivan Ivanov",
    "sector": "St Petersburg Pulkovo (ULLI)",
    "elapsed": 3290, 
    "conflict": 320,
    "served": 35
}, {
    "name": "John Smith", 
    "sector": "London City (EGLC)",
    "elapsed": 8304,
    "conflict": 830,
    "served": 32
}]